0,1,2
-0.20603362818386284,1.615960753367526,0.3315477417597812
-1.617514909263662,0.7609114694769783,-0.5301253242008952
-0.3913896837049664,1.1292974748565152,0.5242056520419784
2.588447556779672,-0.0773447844362688,1.7777874534648554
1.9001694047099296,1.4217427087269194,1.158238148999418
0.5696601478614125,-1.2740355273131376,1.5305670216473772
-0.6985172101964001,-0.647753352767952,0.6286204463838796
2.067174079900518,0.31760437976623446,1.5191212015029267
-0.6307852436128771,1.9004243873064917,0.04653067243745357
0.7287719420706287,0.9526627729736378,0.4175440670713446
-0.06060324511606807,1.7600927490870981,0.5442681948440109
-0.24248483710475943,-0.44291431550932847,-0.45416412759353497
1.1474123311557596,-0.9477638047858153,0.5361328204156408
1.9298170923796991,-1.1903388185638533,-2.01209866927388
-2.5437561646309996,0.7077264117581787,-2.7920448038403465
2.738419027903917,-1.327160277146032,-2.8453981798022783
-3.159174480904001,-0.19390217306739665,-1.5953162584948717
-2.1056715550654483,1.440242296694235,-1.2900596584979478
-0.5515595066932362,1.3133259933544634,-1.1503904933704772
0.530609518203332,-1.7910717233733386,1.2560623133191529
-2.0279736195924603,2.489601731915453,1.619268748618906
0.8225793056617341,-0.059882234230545395,0.9827898697185499
1.0951239104513022,-1.078742408526058,-0.4991089806763551
-2.4392436728770956,1.1842538101721052,-0.8480865939346631
0.7919832498133967,0.21051487277894143,1.3367620013068977
-1.1402017387159695,1.5817273562320722,0.17594365350815022
1.9016204178778935,-0.7952733718111583,1.5524114592272316
-0.6530732472434753,3.4755917468558106,-0.2583711288187136
0.920268528858166,1.5137868343596694,-0.19018577359462308
-1.4251834894463133,1.2709900334876134,-1.4048262989166027
-1.9602814674563336,1.3265391707840766,-2.0535115530629477
1.8357942080203105,-1.5943346484781553,-0.53265096990597
0.36701318210355127,-1.719371616258834,-0.226450424792509
0.030264916093349137,0.5868508875494258,0.7376933762264319
-1.6871560541434385,0.3791816558891098,-0.20775346739586953
1.8134449345654344,-1.6345878868070067,-0.23722872510817505
-0.5518183022351149,0.3197249341551047,2.66014039702475
1.553670422514219,0.11332922630264064,-1.002638482488814
-0.6409422063502288,1.4185796651615346,-1.4373316488816268
1.0441775985682014,-1.4969744722907856,1.3697163598956072
1.4782450765611443,-1.1395512511793005,1.4590758088392262
0.6918335277461766,-0.8084199555283467,-1.589015202758861
3.352827630207519,1.4661331040281698,1.6222316439513351
0.8007215461361664,-0.7205734292369983,1.177619701597794
-2.5316113622775553,0.31556692367291284,-0.806520216499127
-0.3439477558855202,-1.0274329397829047,0.49973228100871303
-1.1697396709208987,-0.02100064131521573,-0.6372223757009219
1.7226052952126225,1.6557190947285,1.9497696542953022
-0.7004199824152875,0.9264118075612395,-2.0628542648321386
0.04007768723898031,0.867711479217028,2.0408871991056188
-1.529235114405133,1.8450789044341933,0.15913936000537754
0.9693764929414643,-0.8097333214547394,0.6523054027404164
-2.53312823976771,0.9167523327378764,0.45309637509627065
1.9919821820589303,-1.21960749091908,-1.7360210396654272
-2.613606284324898,1.4485436838752932,-1.563746477158542
0.6729552083161465,-1.7613520242959901,0.6164368046947527
2.3501236615395067,-0.5051400336950518,1.6693948690113114
-0.18420381695796328,1.066319243840315,-0.5488254732719393
1.5353189376938454,-0.4840807275413386,1.1749555848106357
-0.670909915098095,1.369307518060529,0.3997929577217737
-0.5929263419855626,2.102572725940432,1.722615257769499
0.01102854309273038,0.8808670317087044,1.0856085519041203
0.3170549051975198,0.3375002019663713,-0.639969381823988
0.3763623837306439,-0.9472778319685128,-0.09538001503432048
0.15594639816511746,0.9765545932589447,-0.42437334623292333
1.6979297843600123,1.663141787985476,1.5219625836317254
1.492629039568197,-0.5424730921226242,0.9294653019449179
-2.153210435232836,1.1561122389279885,-1.7221666681522094
-0.6623233290510748,1.9948623397643168,-0.838553486298325
2.682692616281412,-2.607106882156699,0.6852812909224677
1.186403396251991,-1.0564718428328304,1.7556148390871265
-1.690354412134373,0.9051990390867474,1.721562182207573
0.30504158515588653,-1.669990575435417,0.5964404810842063
1.0801653226224572,-1.2463803585941111,-0.32823377808412324
0.38132693361014636,2.9197908949993208,0.49810145567948827
-0.0810669793998331,-1.0056809861407179,0.24604649136608603
-0.6245700963571106,0.08971716910971073,0.5363685580796269
0.9085957312487967,-0.13979822853283785,1.895365817033261
1.1802378867092234,0.5643272731681097,1.418054345812081
0.5077728949072567,-0.5095495067923124,-2.200913531716533
-1.2323993056221556,0.060796847641442886,1.998428949030616
-0.6682228196233799,0.5095873243844349,2.07433297402073
0.5369987152635594,1.8002882646347302,-0.20723914828071965
-1.302567008048975,2.3900881052915457,-1.3284390225988854
-3.0417387825487703,-1.4075455634955234,4.447136710259492
0.005748057045041555,-2.4969043702219773,0.3125793905196086
0.24558776987347408,0.2792928295432322,-1.091069301973747
1.5579958134844754,-1.2458653019607218,0.7667229108202901
0.8761831636043945,-0.8175298488031216,0.6660156795352092
-0.5430425187417037,0.4356135240620227,1.7682939308722445
1.8522963659026335,-0.004432174923342136,1.5357157384645066
-2.3918045156536776,1.1365228185373382,1.2180692590881819
-0.1584064724503409,-0.5445137974820513,-0.9937630542844794
0.8494738873301426,1.333945237477408,0.5536754864878176
-3.4364469958042214,1.713139091662809,-2.2854331160141155
2.096662270315665,0.6300474045108785,1.079190887789157
2.588532751827394,-1.4863216525511864,-1.3645933960879053
1.263489053090948,0.3542218966838604,0.7345049006466615
-1.8436420380132708,2.1502156613617167,-0.6834712660112983
-2.2887471280111176,2.4420580191955077,-0.3452488878205895
0.8597909773159058,-0.507220620199643,-1.7828528496096858
-0.7609500681655352,0.036566181889878036,-2.5170741491559965
1.9434418184075497,-1.5439042546715929,-0.6873541414273185
-2.8228464263433954,0.17342362784547627,2.1198393427431252
2.420390152685084,1.8103937874123472,1.187405247188479
-0.7994112897241417,0.804802942671144,1.8491092161784957
-1.337801561419503,1.113533803780337,1.4196692805179185
-2.201521947999281,-0.6032562684806537,1.3534859321659354
2.3078201032796875,-0.9374271301056443,-2.9352292035251586
1.7308831966427438,-1.8454326605444096,0.7896959386132614
0.7032207765134717,0.5737705065309227,1.1261495957743137
0.7478357522778691,0.6918285980523178,0.7471266680410362
1.140941291111516,0.43105154630116926,0.894553532361114
0.16148949249461364,1.2569729561166731,0.13739145707250777
-0.7594620394193947,0.28711198831670726,-1.938204604493211
-0.05953394798476275,-1.9221132270033938,0.5192866395548423
0.9610044132802757,-0.9427084647654259,0.7406303143424584
-2.004174158225625,2.0776838280147647,-2.4214281091963934
-1.7162833518977731,-0.02998459335077297,2.6462467847603235
-1.6460711132386534,0.9807088005179976,0.1534212128730721
2.2138136976981078,-1.2789292919888124,-1.8781569862476337
2.8931952426590692,-1.6600883114095102,-1.3305959359665698
1.729529608513964,-1.4933711992304177,-0.303237910857972
0.9792922634370647,-1.1125135604591534,-0.3609610621440499
-1.7169872269483777,0.9586399886846996,-0.253854131433052
1.7574856323953694,0.8383396020990339,2.1053390959060425
-3.0214653752389817,1.224341254274249,-1.8122211730697295
-0.9808249691162219,-0.5748665382765679,2.532886059530303
-0.371553935401696,2.224538247750451,-0.7994738837366451
-3.1071613349072376,0.7670393001669551,1.9108103295267056
0.366440731237784,1.1247285970574585,0.11276282899941592
0.35281142768078433,1.4533179467746078,2.0616838492031544
-0.48904279653533733,0.6992629300960533,1.9018590969361604
-3.0360980765081766,0.751614972760757,2.160079531873346
-0.689933341397676,-0.18458877660506734,2.3168847406959334
-0.5577729921766805,0.9954234339832448,0.09954795841259134
-0.0091015627499621,1.8593884856223075,1.2352126271433153
1.1369744557129526,-0.86189421568776,0.5716173527322173
-2.426230040025748,0.3285333194723581,2.2646185267118
-5.206538067553356,1.858058541179569,-2.9436423647962573
-1.685884483292416,-0.8957100795469997,1.7510036599902246
0.7126050515230018,-0.8493096620307939,0.9785441022930406
0.0289257645423322,-1.209631297984771,0.910993945183443
1.3264469930181333,-0.22862333227363318,1.322121492558923
-0.34241960948959105,0.3518578745727723,-2.2444978786968113
-0.09662870904674259,0.35634690694011706,-0.47332982901198195
-0.6739536764297519,0.9276138868475982,-0.5800180955549532
-0.7121673815818603,0.5999371720440323,-0.9244691102965985
-0.1792958213620104,0.7431971267519288,0.6646035155926162
-0.20597640140534557,-0.46028756348037336,-1.019789216065906
-0.387013566761613,0.8136741757332243,0.996358314289599
3.088839001876562,-1.7779034567526848,-1.5459159165158405
0.28862284779091985,-0.024674168849647904,0.10364927157118697
1.6612655148783086,-0.5334326754981928,1.5200648756214061
1.8588675827464827,-1.529413701781702,-1.08062990849069
0.9880282189733265,-1.3527137468139783,0.6365216143093109
1.4005001754316442,-0.9769132408871569,1.4482470294308185
2.584851992192113,2.206827217113844,1.832468802453541
-0.3321108620479042,-2.894458439753707,2.6482543883604004
-2.279569180066038,2.5384924677182212,-1.13659264005648
2.1429426073478535,1.4857484298349886,1.4720407593758287
-2.33137842688999,1.937231868757633,-0.822212116432868
1.8312693560108961,-1.2406974660480856,-1.2523393331580497
0.5473497408072765,-0.5716429711954708,-1.7171877345590063
2.697982643579982,-2.9880094773834376,1.9382979328051926
2.4213928574408694,-1.398395534664082,-1.580951960147628
-1.5569987487588004,1.3079753305366186,-0.5193895790670063
-0.8586525243527358,0.7036795217751363,1.6672514556536218
0.929984059093073,-0.30302219376143935,2.07511214067479
-1.3714227029998427,0.5440299128753734,1.6635424167266577
0.2136547149904311,2.2831604039891653,0.8581204569225862
0.24242826133260786,-1.1386508614052189,0.9626499615891224
1.7932255361775018,2.2353467181605673,0.8149853646515242
-0.7813004994237224,1.489677050818428,-0.3052256922352622
-0.24160050934653732,2.4200907163967535,-0.35539012277064463
-2.458812920008431,0.2828549640721868,2.734077751638028
-1.510156251275375,1.2098247587511255,-0.9004523973982546
-0.13985693275415212,0.6558557000841228,0.7142786872273403
1.0407482716810277,-1.4719491354357985,0.21435159742444143
-0.41215351127004585,1.0694043937750626,-1.0551320761494063
4.353554819283132,1.0410985315625574,1.3092556480233788
1.3512149411412824,-1.1566497812154741,1.2419500501677057
0.897911746143395,-0.9309038956019215,1.4926041332081539
0.15708644354886792,-1.4747421433529766,2.7781129699239244
1.011080010311673,0.3989986188918403,1.7597796991945382
-3.4455282339317463,0.5338919791100318,-1.8560420364812775
-0.1899133955922745,-0.29051850088254505,-0.7834327064852937
-0.17162929752887246,2.273337659887111,-1.1224576556168369
1.0475182511243037,-0.6826280009398706,0.4231688029830819
0.2963094330681443,-1.3374732692737143,0.8592104716013371
1.2760612038456745,0.5779605885478893,1.034416364824541
-1.1228257844887324,0.630893284536751,-0.006016661824159164
-0.11349051662602827,1.5376679833941334,1.3350052864248436
-0.9626275589363371,1.1553834085896169,0.09756476065491182
1.249773820893955,1.2405362870958967,1.3572972620208317
-1.389310941319891,1.675169282844553,1.8954270649604683
-0.12591622637979494,0.3901101873873337,-0.7776285419456002
1.009741326035818,-0.8744588112972906,-1.4111379732063156
0.9835849614335567,-0.9293891127134343,-1.3158755252873033
-0.5642957427790013,1.5014568741257222,-0.8332496114091132
0.39964316180588044,1.3355049689439933,-0.06333371640715257
-0.5341195159833709,1.1407887365707035,-1.1943491243928732
3.053593617590476,1.0029071049771192,1.9631103093545113
2.607860763316351,0.15628852193192921,1.6522095297511925
0.4179738789894638,-0.08206660205060212,-2.4077863088440905
0.2717704043776381,0.41351383427203137,0.8294501489766134
0.8944934864755012,1.2500619450036603,1.59749184384629
0.23770084852436124,-0.13209140505107753,0.4972275680740905
0.3399267865797162,-0.2406405094758992,-1.5288323034518503
-0.6583060982523825,0.5203665511927262,-0.2743734104636989
1.4700818180546498,1.2734046428253292,-0.6131767124458603
1.1552012898202912,0.33096187428241275,0.9309250692753913
-0.13899108337203203,1.4167949518365053,0.48900034002034876
-1.0912748657690847,-0.15829639052238664,1.029384911978094
-0.4117173880755056,0.49817515102593135,-0.07217495441212962
-0.7100303061837481,1.2365427525832609,0.4484104277049178
0.8522545147201186,4.212671190966105,-0.8783577357622554
1.2200783276124465,-1.5047294057623883,-0.18895650857347945
0.8292771304947725,-0.6771055935727587,1.196452894573993
-0.34936321538549264,-0.6400342530990604,0.12080760767930376
-0.7934499045706486,-0.14012360570097604,0.09484807099780412
1.5435717146512486,0.21736546515718347,1.5757966244513768
0.8100910897161345,-1.3506417234395098,0.11874314435021094
-0.2575729161667295,-2.4338203964891574,0.3334825091859036
1.5072576553203527,-0.21793159926255068,1.4309004969386871
0.370456461949057,1.3994604437717717,1.080493364316519
0.8677179963895265,1.608560473810535,0.5177568611707855
0.7878507358304441,0.08726039086338078,1.1025376250340144
0.04838660650919169,-1.0544390086634823,1.2983060605654073
0.7659976409744538,-1.2782405871278821,1.29245863802411
0.7876116150580488,-0.7178859524306895,1.802368813972529
1.7036030048720354,-1.6742172778770295,0.27163315595671866
0.8592265697089398,0.2324776104180699,1.5844796278201416
0.7161769209201823,1.0979479708640376,-0.9998102547932441
-0.40192353251638024,-0.18430523248712305,1.2987794295622683
-0.707010830769111,0.743848876472675,2.9438671998896453
0.7655240800699301,1.0107994232170885,0.5265824749970109
-1.5641958180032698,0.6061027220365125,-1.944558631162797
0.6139815438356152,-0.8744179754644773,-0.7245053621848149
0.43555910581187685,-0.624066680887189,2.336423006196155
1.0509797214520407,-1.5394794981773183,0.706023807004631
0.09994407672214978,-1.2091551254992656,0.4262544394915201
0.18480859703092856,-1.0092542500873156,2.528734361778082
1.3839052718332543,-1.067994136927797,0.5300573529628049
0.9148823260744383,-0.66504403634321,0.9965070153838744
1.1238711967923778,-1.3207439663681835,2.1861236741613403
1.3782133402423167,1.2651635275964837,0.818288150104844
-1.3117752606418982,1.735798488275282,1.5650018925954166
0.7123166200126844,-1.1144274404409593,0.8302160990743009
0.4863843996803592,0.9217442981662817,0.9379712407099712
2.392619409310007,0.7863448531078847,1.4512759811038654
1.3956841227343464,1.4116807216802005,-0.40917523161105895
1.42125775474431,2.114631568401535,0.7583234007265596
0.2779736236571123,0.0253865153462689,-2.6640421999979256
0.13887783810381416,1.226066986431863,-0.03989113273064593
0.4971893107142237,-1.088397884384954,0.867501846776741
-2.6414056506230152,0.6413772612552653,-1.4531730066229946
1.8725150828617352,-0.8581384820524732,-2.2511686644023303
1.1855609304462293,1.496114996665693,1.008890113702941
2.7205785392109663,1.6096416090657453,1.114686551720419
-2.448809771918933,-0.7066575770308705,1.707736527476719
2.202809350253272,1.2706008049638622,1.2569946605353786
0.9791810957709962,-1.1036327187186106,-0.9149911019103928
0.8987855567791849,0.1908939557803081,1.1173841866645924
0.8530517973688394,0.21331936680660912,0.514252209035293
-1.2514594747291186,1.7478858768903924,0.9446502397861358
-4.4381713499036,1.1600409619289895,-2.9868367588739115
1.2053802190029166,-0.31123894686433473,0.8123176337163663
0.885755810405734,-1.5215369864821082,0.5284522611509432
1.5406197685449494,-1.5899975530177644,0.158263415134269
0.4374425342439585,0.5732377675780855,0.9293777999833023
2.342037997907404,-0.8776170828461433,-2.5946298992151524
0.8045713152006824,-0.5098631826909916,1.8686030002746086
0.06635530771206777,-0.8160881440519522,-0.639319357167941
1.578808181721629,1.3423378519940186,0.4634462962612982
2.193529660681042,0.931692479093947,1.0929009935188894
-1.5912097586383782,0.3396924115083447,-0.42775326932241076
-0.22017373850822908,1.5873241474888728,-0.7586132958611187
1.2393207652763065,0.593411253021604,0.4060735204380842
0.38782878492149564,-1.6337392617270292,1.4142372713174476
1.8713889863530269,-0.35850783232146854,1.227320268384871
-2.042001790799354,0.8465325462166602,0.5364876423094557
-2.9870599628707306,-0.14072505195093044,2.868069626998542
-4.7685529218399605,1.5873195061331982,-2.7640851040156638
-0.716126378150626,0.9813135406892949,-0.47008044788004133
1.7832156832734174,-1.3931058555630853,-0.7840585436560707
-0.5433243233422885,3.2189431895197744,-1.3628913263470976
-0.043564825591020706,1.848819380611947,1.1830650363132862
-3.124490885718745,-2.2579204731382148,2.7089989509369357
2.464718369588458,-1.7017300917463305,-1.105583336014703
-2.475634977511997,0.7580452353825722,-1.252516907971596
-1.0434323125166278,1.2665729919789113,-0.1286991611024889
0.9922267119550574,-0.4589004751789064,2.394252850342756
0.2905809223842677,-1.1076920061411526,0.862224778384246
0.6310131094313818,-1.909506058837783,-0.5157363187183159
0.22259657489756202,0.9266689735234388,0.16556275011848864
-1.9141289172611222,1.9196096099662154,-0.3644113477808473
-2.9625929707636227,-0.24595314391932632,-1.5436039532099097
1.3138245433327338,-0.45901918260322716,1.7838519370355894
1.1386181542488252,-1.2949995655768756,0.3266792793597145
-0.4551365194442427,2.1203768615866285,-0.6060134636583991
0.7273771682847172,-0.6660096026120564,-0.105149525945607
-1.612545006537104,1.7733019076659777,1.721176229919317
0.9645130677550072,-0.9532252105764549,1.2542714467633518
0.5443879991620943,-0.8212390416421649,-1.2694267422045962
1.5541459085218714,1.4897346551500938,0.6288430266112663
1.7955880801862425,-0.5860683710240455,0.6100379979632486
-1.5975376954130116,0.6274756300396866,-0.4026064560998416
-0.9787032767385837,1.84704806472473,0.23598352852659643
-1.106641471723337,-1.0194813293879643,1.4867270886269282
-0.7229508805796794,0.892054688920461,0.8854594154236398
1.8292014594606836,-0.7024107557253568,-3.096817047001581
0.5953993781868361,1.9028672508222138,1.2865072569296547
1.3876996111350595,-0.7467707830042267,0.9118055439081573
0.18975832420313554,-0.11601575865172808,0.5806439026278154
1.6619550619902679,1.0035595047168535,1.4413331596371923
-0.4229943097455169,1.7134507705992963,0.3343387852111971
-1.0972883739309462,1.4691251568295225,-2.265311213037669
0.3998651634751865,-0.5252199685317545,0.86328575827331
1.5280718299918048,-0.5941363717562282,1.5387530745169236
0.44201415333307703,-1.4627263306153835,0.22541253920721005
0.979804826759117,1.0001529327201542,1.1032928574784377
0.3079313855933036,1.1694382476453316,0.8641817669116386
-3.0646393716130813,-0.5685533502933573,2.370677296536532
2.175912597732233,1.3942219596106913,-1.5307599854772365
-3.2862098089942027,0.8065733178488834,-2.183558715619311
-3.7472743325974887,0.9713766819331161,-2.1508645373239683
-2.5906324350397356,1.7170341143307049,-0.519535722818103
2.68616473959215,0.6013415412758406,1.9180703301177977
-1.6373139346985792,0.027517787441005304,-1.3354701172848826
-0.04534511056828072,-0.6509367283064169,-0.6300848550158
0.025604340026889938,-0.3677898315364385,0.5490430727208773
2.062193307026321,1.2135649038705099,0.17726630033328328
-0.697703209931936,0.9773850015015031,-0.8538515216754334
0.616522753356266,-1.4394650874716697,0.3311441873128025
1.0269276484177792,-0.3868813750203792,1.5932495405260845
-2.14162785107498,0.9542438097232927,-1.8785358846680644
-1.879275092550321,1.0448535146679097,1.5516920127463787
1.4331371771898835,-1.2376197260876602,-1.3698243992871624
0.5587711528044526,1.609949819607416,0.7796829707395061
0.7983199253640629,-0.6457997225264664,-1.6679302473630724
2.1128049857638835,1.3102526481229217,1.331553114444969
-0.9804705980891556,-0.9478947970256157,2.921367082174494
-2.0530196855182665,1.5645441783838576,-1.8148286691591204
-1.5160374458389891,0.7364361447232352,-1.9888373904976464
1.1176117797053706,1.124339572301832,0.9348046158394867
-2.294310936084325,0.40024496666074727,-1.8275870532910103
1.235144725237382,-0.2017340684824196,2.7624328388991635
-0.6968640030758235,-2.400294525355628,-0.22706285924315184
2.5375749976757986,0.5859707903942439,2.0090189451426212
-0.4033591842875305,1.9787406707855333,0.6063693008101995
-0.13017297154917262,1.6930638544302203,0.38620655723821673
-1.1469297523512878,0.843907714340681,-0.38076944373776234
-0.5047436617550752,1.6898463718793444,-1.2386864321136994
-2.6255632435750043,1.723703732152249,0.9496805372325843
1.4253630073287076,-1.0273471236726384,-1.2703013347711793
2.343623029582223,-2.0611056579735525,0.21649890070246292
-1.3393786589044714,-0.9501612208284668,2.1185628121815343
0.37190153100329926,-1.58488124549184,0.17344608274682705
-2.973033096172565,2.4217673139178464,-2.7012776099445737
-2.8821311507884517,1.601434450714652,0.10379755733190321
1.6231453216248544,-1.236563014377085,-1.0806360178972763
-0.2832200375510795,0.03797861724891827,0.2019100586941689
-0.6710096348579297,1.2847122245291545,-1.7903927370666932
-0.3669631196655977,0.4349571165338876,0.9541044722360771
0.938885507605584,2.391790758588334,-0.25574323873260885
-2.625401554547789,0.5715943794438382,-2.2624250080237926
1.4687482483445873,-1.348266017402783,-0.6501223913002023
-1.959848886168337,0.015005999358353783,1.9990605377801816
-0.44032205501167043,-2.374761532237822,-1.2476826782088937
-1.7257844091696084,0.7492344762625465,1.6282019847163323
-0.07012010713245531,-2.180318146414082,0.6130124869282906
1.9996391849882738,-1.818083386872245,0.17282717269213177
-1.9506768034784336,1.7085348222802632,-1.5553793504950009
0.7366302453727528,0.8480659346155615,0.9523431733877288
1.0322127305146895,1.2049158919474734,0.9733017443452427
1.149916188141011,-0.6808209214225875,-2.2217529208279947
-2.191411898393838,0.16017056051074974,-1.6858471421261259
-0.46482500175807406,0.6592449880497557,-0.5394345078913758
3.4153436528726058,1.12031643582614,2.415172492231599
-1.3158539192614147,2.723966411203541,1.7139491932757465
0.5066564333547371,0.8053828018362311,0.8590908946478877
1.40598782793101,-0.6427387037756888,1.6694705766365276
0.6326865841591975,-1.4861891850425377,-0.1756681109511251
0.4574203986745249,-0.9183878998939652,-0.6254928595442508
1.5168060367705842,0.0690966131754045,1.2221973434213584
0.741167669062389,0.5980484095280216,1.594042568858276
-2.185221677823321,0.8888679966253822,1.6547659310326437
0.29961198400068456,0.7792202386987717,-0.5238746326179967
2.5492732196167527,0.6488011011460918,0.41968200968922975
-2.080295794100471,-0.028516201330675672,0.572735676347131
0.31378711454642694,-0.5766758941082935,-1.3855710725462578
2.306124127066952,-0.4538840649105098,1.9234096944264256
1.2944687962850188,1.844937823224383,1.1586397367595151
-0.20232608556036324,-3.374632127564392,-0.5987651356125896
1.6159635508023569,1.4732648089096856,1.2290574555139373
-1.6947194272413642,0.7117302749686891,-1.1105662809758912
0.7904420748158281,-1.2019420422486125,0.5364900219401914
2.1011364828896424,1.2646542914781027,1.523457069047288
1.090959512502862,0.10723653462933003,1.0370384496938228
0.11579342813277149,2.668586525712504,0.07750869632758295
-0.6115653329015207,1.716632303621874,-1.6573026302337572
-0.1594473818346991,-0.187207322608403,0.6953071063987919
0.5321757904255366,0.8479376339651239,-0.4176676733035496
-1.720070498698853,1.5106909164523454,1.453819472083091
1.0875127219284701,1.8186857407886396,-0.9214352630346747
-0.35084502089424185,0.400821139892368,0.8838456318447795
-0.2299155904075072,-0.20471016260773212,-1.068145769949832
1.717915401432789,-1.1616997802503157,-1.751913875743104
-1.2570814483155712,-2.660329256187529,-0.5758696545524462
0.7172770024022778,-0.8575537084528815,-0.9195691713330867
1.0237374376662585,1.7713832164307828,0.5182804819062415
-0.3791475282776736,1.5557456594223362,-0.8727094653879717
2.196330710567782,0.6658060768586013,1.3098415651792115
-3.8241051741532277,-0.2735356740385191,-2.0675161030381837
-2.0763196924276786,-0.2707111077332658,-1.4161156444760832
2.5277608817354915,-1.9800888677853492,-0.25160104448259935
-0.0584123716805125,1.2424910007238796,0.02625467351105537
0.36685640507221307,-1.0135367269073574,1.900014383025074
-3.3242882818845954,1.3016688717757208,-2.381077428921599
3.0353452675234096,0.6942506539358018,2.4306830722342676
-0.012148274879867249,0.3888315087122537,1.7528229072827557
-0.6533176878225573,1.5025529653565175,-1.5573925535784472
1.3111729850712965,-1.6384607702516907,0.9477359514941035
-1.2770696140778923,1.090484079585143,1.0474983429120026
0.7209047036009113,-0.8400793895858978,-1.1033539300465716
1.163876525934877,-0.6754513571696033,0.9448328197294253
1.2290676460576881,-1.479054444445012,-0.23835650719085022
0.48378892327241974,0.43745852656392403,0.9386263968077599
0.8843263156255664,-1.7085086527844122,-0.5253661379094781
0.22974682920049605,0.8550657514753935,0.0849434636593801
0.7876525813879851,0.44327643976520503,0.8304431227517672
0.02026926326325107,-0.6503319676346149,-0.5572400354149585
-0.6741201596914326,0.41358913770488104,2.4929769096061367
-0.1317169815126492,-1.5941987107571034,2.7439689239918574
-0.7574114721655669,3.7119521301319938,-1.2288193584163585
-3.0708051134791643,0.5791169726560979,-2.4213808901183302
1.2557690867045603,-1.0504656706103075,0.6057204788820818
-0.9286079073193143,1.2812218832722064,-0.7582448246555691
2.1418780653691805,0.5723540146812574,1.4707120868188457
0.6448213583125306,2.0243580319448,0.3810747049887482
0.40823539818416754,0.7781651396640223,0.7841050854923332
0.22880467296982987,-1.7241917141352026,-0.16785104661821304
-0.17753233955534764,1.242025016494047,1.37700374599402
-0.0877912356871633,-0.5536890028120047,-0.849521661741419
3.1183535004035754,-2.1060877861356224,-0.9381807304537781
-0.11278805142306658,1.696129404247878,0.28718446720104607
1.4449981216618137,-0.8650929565148864,0.707147002548989
0.29953673780774903,-0.9604617993567323,-0.9154793814844814
2.9450030235375504,-1.354179010671674,-2.1059038513879846
0.5009738159622832,-0.4255615548510696,1.7981722126123136
-1.2644534692784255,-0.0838105824080988,3.610236787664473
0.6053838353606715,0.4795693793691913,0.898200081834345
-2.1192579790198645,1.4402918878508828,1.2982791769453734
-0.9271611056347393,2.539283823617703,-0.9152760110852485
-2.057681169260936,0.12271945964091346,1.0675989220961586
-0.8363403092431336,2.426667468071874,-0.46083785802895294
-1.2446387320808763,1.3686901375997298,0.5024588398681905
0.5728727110561482,-0.937823560070293,-0.9552088203093203
0.4448699630083027,-0.8867190829067038,-1.035714792527211
0.21218537409540494,-2.3526941605737974,-0.5592921578207579
-1.7260813957587469,2.2729850945185364,0.23126151529764016
-1.8655774515523658,0.2920025878716238,1.8157260504745014
1.1020936521579985,-1.1883784657967305,-0.5336992820724158
-0.5949332217088839,-2.1032212442726923,-0.34843325603395714
-1.6679881754101977,1.2238257456721473,-0.291648246499717
0.5263393317605343,-0.24344655201828946,1.7648307020345166
-1.874424048042735,2.442082619308545,1.095356722623457
-1.113232757925002,1.2606708752084972,0.9818756202118722
0.2773945747508042,2.7760830649466723,-0.5230152242004733
0.34013090143201163,-0.5031218012782271,-2.2193709277059126
-1.1915041507868347,1.4242991803175356,-1.1711954946912935
0.24242234122307682,1.3693381846177082,-0.4836747778282502
-0.24671731597683433,0.4757997340565424,0.726715375910461
0.6260363186520805,1.4283061550333418,0.3171083134334902
-0.4908605103453271,1.1194267861478864,-1.1069870331822118
1.0939206692678016,-1.4799425337744045,-0.04424613460495208
0.6048029625403757,-0.8477291119331674,1.5523501663774861
-2.724665754168746,0.6611651005369683,-2.043596900609166
-0.2848336835567973,0.14140711983556953,-1.2806064651925584
0.9876146382188246,-1.2829265911617658,0.7237349269864222
1.788422399542017,-1.2433308707777544,-1.3035820932259943
2.0229364359654145,0.13766269440500656,2.106413545548704
-0.638205576942934,-0.6322580126747379,0.0760636562010999
0.13179607226583623,-2.174475000961797,0.3032588980517177
-2.636421256190959,-0.586094067161159,2.0780092652102735
1.200230358312777,-0.6106340988080632,3.0094374680867633
2.0906634362917886,-1.6799800364766568,-0.25378425060212595
0.2333485720596321,-2.4785192393043634,-0.8938443725632399
2.6605879749854786,1.74290902359989,2.575773876760584
-0.944523902513853,0.946424859157655,-0.8608472278127675
1.1095360825843876,-1.7697106287904318,0.7594966659114812
0.20371115285521024,-1.3512686623266439,0.6261629732356307
0.4970944650202568,0.6520532105964503,0.9191567928145954
-0.43880559782990936,0.6549508674978675,0.9972641125160014
0.2766080166072139,-0.7629772498145231,-0.8949906946757498
2.202092073372495,1.0918431734911336,1.9100397479773374
0.3674731333638055,-1.7074615770053727,1.0005189423058285
-1.4866050157469846,0.9708816048087225,-0.6682904907234294
1.542147341044192,0.13566409082260567,0.9606174738006912
0.86591339323561,2.4793830657925664,-0.2435164812226711
-0.10055948375322576,-0.839699565861883,-0.14827829607245402
0.6771255868071206,-1.324928232216893,-0.057783537794884765
-1.2375551968736351,1.804342765690158,0.4896587375307312
1.1178454898081074,-0.5856099803608961,-1.965098752987854
2.6854088394064446,-1.8493904790379891,-1.4425337049488642
2.8527993434537846,-1.5473772269873496,-1.749308257636462
-1.6859057453077917,2.5399057196070167,-0.6302710511515979
1.2243385249255199,-1.3792389220906334,-0.2577710054622867
-1.7546991937052838,-0.7344278701695386,1.5244518924979795
0.08544132970796747,-1.6360324387332237,-0.2255861894255482
0.7515318965062463,0.9061558968945034,0.9301229778135899
-3.1478646773736667,0.5935573738954922,-2.442684489884256
1.6058423760563465,0.5905365384275879,1.3899641853502045
1.0450098906641978,-0.5172800912875704,-2.489835402365397
1.2125430566537054,-0.6775019669443716,1.7447771534966645
2.238734829875135,-0.9945165796178445,-2.292365910085458
0.38414587767015784,0.5341492435768931,-1.479064351433263
2.4114381763755244,1.7786556781287919,1.5617937689917398
0.5125060498483798,2.503677844357913,0.3315402227653389
-2.7165538635454163,0.636435445199522,-0.20495483455238628
-2.036081778709757,1.1936796699221335,0.20769011365041434
1.6192781334264361,0.23812460344380626,2.1294048148375233
2.068921025701612,-0.16358080207615855,2.8641325453153392
1.0748849878378988,1.0117581431711704,1.114959413092476
2.662113951442349,-0.3782247009575237,1.854632594432529
0.9653118225726439,-0.7752977582661171,-1.3315792687249561
0.3855939657399464,-1.043554401941145,0.8766419850749874
0.10210679087797425,-0.49105572025008937,0.8752758969946426
0.40323516276419036,1.1848529837582875,1.7605725212552692
0.8667734570534121,-1.5488383646984678,0.14277326721291972
-3.3030923681401143,0.46513397240071386,1.5690478511427053
1.559877124955991,-0.5644212924454255,3.005465306846682
-0.9813983551444259,0.31373102202526504,-0.5450393932094242
1.9626666214910844,0.5791202674568734,2.297765744191514
0.8291832159188055,0.48624659050659835,0.5518238687296084
0.6598696122876713,-1.1629017501001773,-0.3949664635687
-2.599034490615309,1.4901302073757008,-1.302375474279559
-1.4117174786295483,0.44218105343561986,-1.405952337400758
0.53643064848008,0.08728465806487062,0.14718069309040294
-1.2807598588345095,2.1971959832115937,-1.3071739442656318
2.0932400609076884,-1.609717999834881,-0.6925689761936632
-0.513507825586722,0.37390022970113734,0.10710395642554049
-0.6684330003495593,2.1103278022445098,0.1401669223479577
-0.08064535028320075,-1.4161675208142115,1.28577029218958
0.7586202345149919,0.9271268725815254,0.9910226058785168
3.2838130698012917,-0.05171178636853102,2.2531632977539724
1.9118876249230259,0.27439309902151265,1.3638095068200407
-3.8946589667192475,0.6380462447833999,-2.0757920357919586
-1.1483567508555352,0.44179295615995784,-2.1822776838023676
-0.3311970692542122,0.5493032044896786,-1.21448611114143
-0.12728425733331084,-0.2592099462494203,-1.9243216105314997
-1.8680922859884164,2.3066744564120096,-0.4093406835670512
-0.009136140509537594,-2.0435500931539794,-0.7215160664094256
0.48954704975428864,-2.293269274477516,0.47607272844597026
-0.02915776640939316,-1.764873475575619,0.2591274318065422
-1.2173745561535108,0.2642629238731954,0.7584845069924262
-0.473427520444728,0.371778116690336,1.3494777323494138
-4.707710521193819,1.0180121431700615,-2.416174468411611
3.477136817534089,0.7302634010970283,0.0097872450878429
-0.6946372073886049,1.0468112886569514,-1.9090479664571083
1.4603934546287038,-1.4021145374783754,0.02622397462003523
0.23719891424146544,1.6563990042587156,-0.27881354677324177
2.39595054109507,-3.0323173314961283,2.2663032930635207
0.7215033943166156,-0.952476495063691,0.5685333709332078
-1.2420316630295078,-0.2690915498297759,2.512404475262696
1.1805471427615468,-1.3572701649162782,-0.48283417891416935
1.6351478620560818,2.5051889987930727,0.8529450423174476
1.8895369141474807,-1.6074325847196915,-0.11430110005279415
0.9754274639682545,-1.2392119828702786,0.5542105701808004
-1.7724008940748974,0.0664448535813762,2.123245702083124
1.525322122276923,-0.21750605100967924,2.3925009742375876
1.9524205733259876,-2.359180062950801,1.0370331659080452
1.451850576120254,-1.3393735518575396,0.8520654121620925
1.0687886813544423,-0.9249928444633855,0.44755432197483835
0.8126831656368009,-1.6158181175149302,0.6637035408100233
0.9103413700245746,-1.2645356225168871,0.7568569336818534
-2.1521184237777398,1.2644906479661597,-0.8648400424122248
-0.39327283769522814,2.2408347711061944,-0.2656328588310657
-1.050703004930162,-0.7025474471028035,-1.3831244559430236
1.7163083559359698,1.496550286434416,1.180822687023732
1.4480595480742666,2.202126702574535,0.6175183840657393
1.3177087989165,-1.1825832147341246,-1.288163274995101
-4.0070335978403495,1.5060059509876016,-2.629498316561355
2.0497317455560466,-0.9712192888577935,0.9193051023627571
-0.5010241716137351,0.5343647686655729,0.8661532190405133
1.113886290008185,-0.6027215489360188,-2.336305704282785
0.09102318090412631,1.2623305618950105,0.1852995975645476
1.769264767951687,-1.263137608008769,-1.877172318688474
0.2354117139212326,-0.4434814892862864,-1.6052097856534386
-1.498757294004981,1.5537437961816476,0.49341140309818887
-0.0485095241825757,0.5173158716615929,-1.141196776139078
-1.7518756384993188,1.536197123148182,-1.5573386955265942
0.42926872777524405,0.43662308923294835,-0.47764153122571795
-0.17753810937327796,1.1444243054953385,-0.6400357884733063
0.9003545369519768,-0.8854117903764119,-1.1234830392143875
-3.3407624643829776,0.25607500356607515,-2.4202870119225333
-2.014347764864689,0.955036880185278,0.19490634455417222
-0.13029538988988665,-1.9043200704486078,-0.5672296913631811
0.6755701527152558,-1.7210206881011412,1.129015023682192
1.6597860934152848,0.1303626710571244,3.005815369189789
-0.26875551422459476,1.1678861448656648,-1.0095496089379643
1.5469211399845975,1.95145831790669,1.3346198925386275
-0.2839603195795999,-0.17919432654774425,-1.5402062021568579
-0.8229572070367999,0.9000680808588184,2.085576985058365
-0.9580475919809234,0.5251145032554314,0.9231960509855968
0.42192320189934607,-1.730152759362165,0.38130593741222385
1.0993393989559355,-0.8909774911828694,-1.499067819508726
0.8019152161127207,1.4004208223515346,0.9250859044186703
1.8367640998741068,-0.7032915068417577,-3.047794714065379
0.8279849934396885,-1.4082184240533657,0.2620197189451978
-0.697739729356952,0.7468910954561386,2.2653496547050977
0.05573354155456656,-0.33968606524416955,1.712615485074607
0.2860374014941167,-0.9745976831041774,0.9666136904587993
0.2303154078630959,-1.1654184218252353,0.4223917886185111
-2.1060171126812035,0.6359827725203909,-1.94064457995351
-0.13298902504015642,1.9429628545407944,0.4028343135259226
0.5494095723116207,2.2716298984020815,0.22827059225233748
0.8141844806649055,1.1325954767635353,0.6240639736706195
3.704763534764343,-2.6544452016646707,0.47327591806624336
-2.7034706685088654,1.370383837519149,1.2313740939697402
-0.11767217866865687,0.5130139678978022,0.7147314772260642
-2.2735406704673635,0.8195082732001687,-0.3380568822634008
-0.2972175020003558,0.09939246313974215,0.03677044147184105
1.743032975870113,0.286165327090659,1.1810815218875075
4.170294698857214,-3.1720489393206615,1.0683069325328112
-1.5042863589360078,0.48638777946859113,0.8050117438248987
-0.10940606751033255,2.2638525862120344,0.29324686621841867
-1.581338489191864,0.15960855961283038,2.6348103436274437
-0.3001725237874784,-0.7908073569852956,0.016943050919949965
2.244574739984615,0.8595908625994546,1.3737553996261278
0.7771817914341543,-0.9619499663720454,0.07525985420291925
2.347427882341004,1.548369947049024,0.7963379916133106
-0.24380264209636526,1.7084224744772079,-0.5247005006590454
0.8777770449198509,1.1977315258789722,0.3181042131855272
0.8551980406057429,-0.7731358348057662,2.162854989975111
-1.819314958642639,0.9222271359875777,-0.4212197367521635
-1.2697492923859277,0.5787890394724746,-0.5237620264132921
-0.7231355579865051,0.2655547449365028,-1.8472013625500985
-0.7277753572976451,1.6482006531549829,0.17876716511686253
2.9665905831881174,0.09347569013000856,2.4493088778586367
-1.2760060215015518,1.3265848721710742,1.159209770274714
-0.8046387198049691,0.8266256308310127,1.7826536171016794
1.3650846868255744,0.3051566671052245,1.614316084780255
-0.5932396887053679,0.8160550032076794,-0.6527362430240947
1.0745209199757269,-0.2640383713489758,-3.164346179305751
2.4463360487198025,-1.7690558161121719,-0.36199326524686803
0.6404573094942181,-1.1227647271189558,1.9218715943494589
-0.9822635040646298,1.4043384346048693,1.4166106283085873
-0.641852646422371,2.4348285834581533,-0.8196909482536245
-0.46445739782241646,0.08399144299339811,-2.1557658112808267
-0.02691288904756628,-1.1980620466939036,0.6096394602366224
1.708744890623914,0.37894630794562945,2.1734413881673023
-0.49142971165452,-0.3810573215402506,2.3365097244519397
-0.3164743128526767,0.9855442404045235,0.9695583030291591
-1.2641548374683391,0.1404990692263074,-0.8643072899423421
1.8969764796651063,-0.6416658645536084,1.782012222983629
-0.22897177327174556,0.8809149708994828,-0.4710968618809943
1.1638825268999282,-0.7513260397198084,1.5396046898594742
0.8849357367744667,1.8304949747204067,0.6600287495972755
-2.3410130720298636,2.7682660070885783,-1.324327728971612
1.8524765206690126,-0.20708544655355499,1.7718861972779074
-2.2197301214878573,0.19425393508086197,0.8113158207404902
1.239933238468299,0.17467322392378182,1.2904127814308763
1.250510419424488,-1.4302694511621357,-0.6633444843845124
2.1814405178034493,0.9713131836265272,1.900273270694735
1.4608371404108171,-0.9981630337375186,0.6853261439970249
1.3230358818671177,2.8447678829593332,0.7288172669194657
0.41779627201728786,-2.25265260405412,-0.3452654961725268
0.9931870986135727,1.0426960319055196,1.2129378671030022
-0.7258153315973779,3.002038730035876,-0.7309102981853393
-1.0270295618282934,3.292157700102399,0.5983679574088028
1.435692912162462,-1.2805886016236039,-0.7648791876313692
-3.246936057877481,0.9713996710969036,0.6659374531062259
-1.4085831837370422,0.6851751935757012,0.7570710455416747
-0.17425606834837604,0.06942991738403681,1.2771715370230368
2.617205013447423,-1.3858066220722212,0.6625272612464279
2.456096375210003,-1.572748694813281,-1.7737170917518597
-0.8785579696039997,1.1234077826702522,1.9194089091303677
0.24093873583638858,1.3683520724626779,-0.0515247106799851
-0.49416078402720554,0.16323656140485243,-0.30378453797003246
1.6994112279505202,2.0246683136138572,1.1059263424460932
2.1161628304875406,-2.070768489833348,0.2160025121925817
-0.3895084987473474,0.3903563679398785,-2.690637106770085
0.035913944212031756,0.6421931137286567,0.8962032089552439
0.23318394047040336,-2.063941327909295,-0.33302655750159027
-1.8531968849430616,0.1587366300962304,-0.6467117487682902
1.9834784739564253,-0.7967742423974331,1.301219028488076
0.6276021425892722,-0.4753915548165669,-2.490553225488842
-0.39724435700104865,0.8953150853171206,-1.2674076258799392
1.5464691910889234,-1.8584643981571358,0.6346301299501074
-0.38610470689835985,-0.21012291510782455,-1.1850939804346172
-0.6187806073668416,-0.44660662083104485,0.06753824167439171
-0.7901739412016888,0.5625832446635138,0.5970029924388072
1.3347348003785324,-0.31789623682717116,1.856309740442709
1.644175172984128,2.351053733527081,0.6706077583759311
0.8130850111501099,-0.6472321360102677,1.148868127097033
-0.2977447569574013,0.9706903390575468,-0.803674272206986
-2.4728801319276883,1.31388233329462,-1.4158578775909152
0.6951918249029302,-1.7542858988959673,-0.0645206214060754
2.1651911122262826,-1.8155018230597673,-0.10937705504394502
1.850499492052974,-0.2283178225845489,0.8650527395308871
0.7863290441195234,0.5336955395147661,1.335933928557078
0.27793974297877466,-0.6162295913206609,-1.521330062666117
0.5211257551580679,0.9846754564456218,1.372263184961759
-0.7340753584430582,0.3797590379857083,-2.341694532503844
1.5587043996465364,0.201853228495408,1.5364437222961418
-1.8645169604092169,0.7493330109011593,0.12706837536088278
-0.2143702199114288,1.3541518003853548,0.0695124670712044
1.9967991406931958,-0.03518364423644538,0.2954090899768872
-2.381475878972503,1.214734575736144,0.6294911903198541
-0.6410788322246233,2.3942809924761628,0.06258227010896056
-2.3873271720663665,0.7269035759631695,-0.47823179609644595
5.01427695647234,-3.778952606160237,0.9299243770188206
2.7145718517980066,0.1846414889089827,2.241908391900555
-3.254979868545554,0.9330914432001571,-2.1339375827606593
-1.1060989557732461,1.5900994081827435,-1.5790165357541919
-0.8377638622739565,2.215242902853821,0.7398389996833914
-0.15883652610867816,1.3709143619365018,0.6348256074558013
-1.0376985592982122,-0.038795195744760314,-0.32414750395557657
-1.0097997482015786,1.2952486264900878,0.6703788310190489
1.3830046266538374,-1.2811631057946418,-0.5978259872619075
0.8782904563012025,-0.8674390288750298,0.7758513195950696
-0.17489556204468815,-0.7411144145710125,0.6111897972740588
2.594611409449569,-2.2147481461539726,-0.10495642971997854
-0.15756742080683417,0.49097494642694395,-0.06371886641169977
1.4014124070292764,-1.3946840131667166,-0.4122475662610289
1.5222852777698272,-1.1817737038509133,1.2729329298885377
-0.5295894707533269,1.3273759828317782,-0.43270377353158107
0.5464075742679708,-0.893969218573953,2.1990485903695527
-2.563657248053373,-1.0512669843975209,3.7949708047605957
1.456565501311783,-2.302542459487138,1.5286754326527152
-2.0496912444152686,-0.2421234181139702,-0.18606771529075095
-1.563623275005388,0.1771455735026538,-0.4581854186746912
0.9625610642043291,1.3618926571216112,1.0699373735066542
1.0204246494189804,-1.2749978002906124,0.8607773088710232
0.15392613923319032,-0.7669150494251102,0.7784607110392128
-1.9404272119896984,1.1575265824687908,0.9892863558706934
-1.4012016693176612,0.7656582205622564,1.4101235185088652
0.1359215362773607,0.8369841051861793,0.6022953260699284
3.4820327079074924,0.027815642557956433,1.8135629300789096
-0.24763442521277879,0.12541826990192306,-0.8754881149327027
1.1141028577190082,-0.6508916766413146,-2.1802529917218223
-2.8426525558332303,1.4425705941792537,1.7309841589787842
-0.5743120635026409,1.416065597445699,1.6746297672290211
-0.2027447407714318,-0.1632995708379792,-1.519039781609979
-0.30095180303645264,0.9049413092709669,1.4252682920258364
2.1770006440486354,2.4164242553181587,1.1352951682170473
0.46402245798988273,-0.6733159580069941,-1.0615961084497083
1.8130383066385736,2.1006695148115084,0.7543326546033833
-0.686090667432769,1.788270068652786,0.34644368281747273
2.585874919821821,0.21312578590237252,1.6768112936347974
-1.1747888636948285,2.9332557298914876,0.531694721960293
0.9900772936151608,1.771325853293598,0.8217556088447584
2.5805156628505417,-1.517732878141416,-1.835673473666954
-0.14670764675845183,-0.3056443345016122,0.9991377365523162
2.278370185774212,1.9946345082495895,1.1325623750443108
-0.6342858918409033,0.24150060063587264,-1.2738225760942008
-1.0419032681711125,0.5601381655442197,0.5868374526709479
1.7207936971667037,-1.8195700214130572,-0.02072506820698017
0.03280905629431374,1.8606881505410373,-0.5986626863117783
-0.04114099673095439,-0.8875646845453388,-0.4194526223255528
1.1676054432165166,-0.6331840833370159,2.1741006006756187
1.3748691657013148,0.22677945626756035,0.7155154701290334
1.6023921841310602,0.9804654444935486,1.441542610383336
3.6104573885164712,-2.0951345416168774,-0.943858008256433
0.19515605101165967,1.3984119718807186,1.663946335641078
2.161681430130635,0.5435848381251194,1.3659076999693431
3.5507090918555178,-1.9500093639267837,-1.997272522410387
1.3724149577358211,-1.8915457242448634,0.16885021064143024
1.6296803941762492,-0.4502389729526799,0.8038997292687224
2.3500553318732997,-2.244449904791999,0.38586939488728333
0.6261544339323013,1.3934522806459362,-0.7588291427072205
0.5724863470915111,1.7778115971574182,-0.8874019242499516
-5.058992346252909,1.3101483253787758,-1.7317660737534062
0.5861213999227324,-1.840244862560799,0.437928428065138
-0.17147449227056177,1.4700159677301072,-0.9346829935008089
2.040082215223701,0.8192085136877574,2.273238001013164
-1.011081473592283,0.19614969918923364,-0.3271596838595735
0.311970290161526,-2.0928500819264606,0.2144137115595064
0.9083433540869992,-1.264985140787767,-0.1679707735805147
3.2470320346697434,2.159713577087607,1.6288955108647132
1.3502042434809738,0.19156601052831568,0.8527246688265573
1.1560396177181935,-0.9293668848578722,-1.0357471318767457
2.134909975847423,-2.362778514621394,0.9610460413419348
0.5576704953259812,-1.277238604782902,-0.2028843995014138
-1.7907002467618125,0.9450180370303951,-0.8372964534861707
1.93691668343174,-1.7642747823834506,-0.6690430804534622
0.7528425800765917,-0.7628618277199655,1.9743202923505447
1.9625718295631747,0.36976931699927973,1.95324724474125
0.39802409432853714,-0.44933943461036574,-2.1652184660072473
1.5489124508891836,-0.8747691993869432,-1.3359034038707405
-0.1553436486551819,2.0113650538597474,0.21886785993576008
1.3422262820249402,-1.5540601793253481,0.526408206221376
-1.6017910825862822,0.3867981361323235,-1.1189733809862383
-2.365497542925768,2.158333564187352,1.3857507965020097
-3.8094450987789523,0.01652877612737691,-1.770218552796003
-1.3762774765049475,-0.020089288280338957,2.428106205258259
0.16735667791968833,-1.3144402544407152,0.7570705881539593
-2.7250455752631355,0.4575410963934555,-2.39305494168444
-0.6588775667727378,-2.2432546841831003,-0.2540911986238481
-0.5465074137003891,-0.952441688945529,-0.21239503266341797
1.7904408303108945,-0.5511843951801003,1.1691233554634972
2.1824286123797645,-1.0155852871866826,0.6551030591671017
1.44316014011876,-1.0297055009927616,-1.6232881959865946
-1.0787460532237647,0.4776466669630317,-2.5128634653482136
0.1579834989172224,0.5484685385531458,0.8580604213380688
1.4262304424982415,0.9836390535064046,1.5262018190828988
-0.6565497015082293,1.5214020249964264,0.327119309091481
-1.0156202700184207,0.16686684208521085,1.6513218417373128
1.4359534435386996,0.20913250650163295,2.4092543166907054
0.7733929347210221,-0.9280307292815488,1.665160414974614
3.5138042454737133,-1.674216708003038,-2.065385765320868
-0.4300557236903061,4.162319515536522,-1.5530029781272154
0.3006703789982377,1.6317946681741666,-1.1359175344296928
2.0661835876499164,-2.084717332740257,0.343008222142569
2.6562941622004117,-1.4572830384232331,-1.6929771778935299
-0.6059401732891572,1.4320711807314623,1.30793054925079
0.11215490427582142,-2.0308030991122745,0.11939276640525875
0.38439678600317573,-1.4464680192823658,0.9152060455311205
1.1750590630951976,1.6385980067486023,0.9862880605457691
-1.4062741618273396,0.12614531890592062,-0.8023613063731944
0.7768437585131559,-1.3641852814460385,-0.3371563013550968
0.21690846392080732,-2.943755689388766,0.20414970202634652
0.3093308324277948,0.14356548151925586,-0.15451469890641145
-1.3383856529673794,-0.10365024828457159,1.6903080792063125
-2.0707229829444134,0.8062364992732256,1.5358739828676093
-0.0391898427919275,0.003869686696696295,-1.8709643794060793
2.6885850492872234,0.5498410303617772,2.2647048261461116
1.3370519885582441,-0.026085733842659664,1.8320248680940399
-0.6462572352779261,0.12246356575297979,-0.6509755883770971
1.683149214879399,-0.6116475229298917,1.6282197350222702
-0.658108624717817,-0.6565815756964473,0.6130115465875368
0.03368705355551804,-1.4439226942333963,0.2839586592542396
-0.8523101676664298,0.5533845787901204,-0.6656471931751029
0.535774095396388,1.2775892575490617,0.7717786871315091
2.3235303762608615,2.3719961091748174,1.0045814692193338
-0.6354586943096523,-1.2795598702627107,2.9319409770485056
1.2125987456411853,-1.0525873452470873,1.018847970604555
-0.8760012044634098,1.6022852752593235,1.218449773412549
-1.8511433171827807,2.4007953452003363,-1.146446552817666
1.656351505725986,-0.23945152659750268,-3.65549417337242
-2.3641381663467183,-0.3571819583696543,2.3145302446755682
3.040608011640785,-1.3912759031169282,-2.0563092204338433
0.5880597980728723,1.702338230333713,0.6411261865352305
2.173150088561707,-0.13940128560269138,1.623683955180129
0.9373098976348259,-1.1864829616001076,1.1382336121562926
-1.0093161974053533,2.2273397345666424,-0.6957735253162693
-2.231999084447126,1.4441312121483025,1.93152972764483
-0.1898250910256959,1.126077653643886,0.19554042475121813
1.2310538354599168,-1.441612825852726,0.27027242092420234
1.970745880173451,-1.3084468163862182,-1.4147831307627678
0.8289069673809554,1.953344146602444,0.777846175509487
0.5876497942760953,-2.016687178622801,0.6152096500707074
1.2195116389221041,-0.48870205179243353,0.9041616781229806
0.661964127406506,1.201356195092812,0.5598284371609454
-0.39936275802311105,-1.1476936921111829,2.041227846810668
2.494356844716047,-2.0769612096257717,0.4263807343441335
1.8481551137108343,0.5661746421889375,2.265121396867036
0.19992660820680874,-0.2605598558746338,-1.394813931004316
-4.0023002189673145,2.036644135231244,-3.0909156844149943
1.1780465340987234,-0.7227843624844696,-2.2552624160127275
3.3478850795751955,-2.2352874540392147,-0.5416563155279969
1.3964825243722894,1.3013216545959494,-0.25374278588654264
-0.16091366060789736,-0.606454675890937,-0.0835084629578382
-1.621020499441574,1.2273603074466692,-1.0811689714639958
-1.4259894064423588,0.8036608473597766,-0.920573256478304
-3.0758583803709647,0.23774714364805072,1.9256042746524296
0.3508821004346393,-1.4435944007919739,0.5051251521231086
0.20871133758547378,1.4971940835500634,0.670713703793127
1.9217234491530797,-0.32215217150123043,1.4014599715878107
0.18736305597518155,-0.19744361845444303,-1.9328415678118818
0.01952160387771673,1.626100757890989,1.1452571948477472
-2.2453996664935545,2.8864912654864727,-1.8300706733816479
-0.6898610735042134,-0.4873377295720438,-0.05964771439277716
-0.8249221271104451,-0.038014478549441844,1.46237244524343
0.8676776108497504,1.1223977821011588,1.468833164787128
2.9068771407517806,-2.111601897973836,-0.8744623825680529
1.7886219921754993,1.042601777545788,0.9578963670782584
1.5340736726977438,-1.3668601752541425,0.49686619625948536
1.418739890387373,-0.17078839947085223,2.5047018991170207
1.0256365227581652,-0.07239250805234132,1.707917115203114
1.8687554625172078,-1.5982336436394076,-0.6993972959788821
-0.869209764237689,-2.624739451508143,-0.7077903084893329
-0.004012342908567446,2.038207333947434,-1.0158305068592401
-2.8722841261955327,0.4481902133073077,-1.2912812286558477
1.0479777087365978,-1.0536793381328768,-1.3757529229117673
-1.6837902817340464,1.3744060872855652,-0.6403412450435697
1.0136364491397087,-1.0689497781438158,1.6437420341267075
2.9022747483364197,-1.3010696807533406,-3.058216319498263
0.6502304810876076,-0.3139547430394126,1.8993006689458776
0.14404941800003845,-1.0371252591197526,-0.1262060577772116
2.8816077331866348,2.0797075518830397,1.7065748362200064
2.1140205185933456,0.08210646017997214,2.351805494926846
0.5173484676688751,-0.9045684262489317,0.6908824531108564
-0.13291555525894627,0.5252900653244308,-0.27711654180473155
-1.2032847784215115,0.6881366137084428,-1.1796644815478992
0.992008803013124,0.9620629366293025,1.204963919688149
2.2903225928012576,-0.9429747325406915,-3.1477657323973167
1.2208931610039333,-1.194938764805404,-0.7684559807120125
-0.7147734623293134,0.43990528392631967,-0.9057781608492788
-1.6570049874803021,2.1226771459954006,-1.1267180375818198
-3.786221874362987,0.04310509105838212,-2.1078081969295983
0.7064712093577296,-1.157280786570589,-0.58228461821055
0.7768565968298261,0.05213487464774691,1.2964554609097783
1.0919815605439225,-1.1286294429322083,0.7610738698941114
-0.926589504226891,0.7769576607932661,0.34037122062872294
0.960070123129167,-0.2353467976961371,2.1430402035297043
-1.946728867111522,1.1122144711934985,-1.2066983468365364
0.006385233215855712,-1.5173771395859244,0.5347858053787533
1.8884386191110085,2.162651660089016,0.9231394481567862
0.6823180337270649,-0.9987630473328712,-0.5519449326327466
1.1603854608987474,-1.322832585121346,0.45233324628630234
1.7006859734346182,0.7153554600439846,1.2485954973960334
0.8245405054308532,1.586640851029113,1.3475548185794954
1.5971184624640054,-1.2160716501116018,1.2266958717136682
2.142343634078582,1.7575094585192925,1.1752442290603624
3.117146839667931,-1.1190141597857033,-3.2267015034409443
-0.14359715730756872,1.3949005748998156,0.17336218255915226
-0.9518788978401249,-0.4936506717294187,-0.6882570689717825
-3.4063160959545002,0.7653019244499064,1.6292607190817567
2.689861583244438,-1.559272500613961,-2.136792027832496
0.7016453358465036,-0.8476625382734388,-1.0270101990830995
-2.0823318493800715,0.9404161238607376,0.06600562123794762
1.4869995713563813,-1.2065944878387742,0.18649078557160403
1.7169096491108098,1.4574971395353378,1.7049663946871163
-0.03462320079195624,0.5790478885620893,0.607138476634655
0.36360186047774823,0.3311424502470782,0.7763441062938498
-0.0220878353452012,2.0957684066653073,0.2106482921742342
1.9728199586194801,-0.7599029781783957,0.7210458751535971
-0.2315919216635971,-0.4634978392401087,-0.6851666128827936
-0.24521206130359752,1.2711782062251795,1.5629282646693885
-1.1403501721962863,-0.13720835022919786,2.3683067098075865
2.4242263271382805,-2.017328275597448,0.26660563523020175
0.9994781675842698,0.8183450075370073,0.8563298173561358
-3.3046859452316726,0.34801003732018887,-1.0784413984129149
0.5742612039401058,-0.9650427640637997,0.5410354435426326
-0.7487028104883462,2.0346554356669087,-1.2718096996800938
2.285519866072879,1.0646316310539838,1.2714423294776775
0.634292494839974,2.331535800499275,-0.03465271791384805
-0.7117802226686132,1.7363190570610512,-1.9491535781754505
0.6714544243377136,-1.3343371356831353,0.2987225952791236
0.1587703956339651,-0.2262853981225249,-1.8577613647050204
1.1367789091654839,0.11900434580149899,0.9367834775940849
-1.0609867962255257,2.4685243904476772,-1.4653474787213279
0.8652288696420233,-0.7826458221483272,-1.7502749582570498
0.7723256736734261,-1.5876930508200706,0.7799427908988158
0.33652761975891476,-0.4267786805067183,-2.0098341724284037
-0.3639854413753927,-0.12075585769140673,2.4186149741584373
1.5407245767760054,-1.7897149626884317,0.5784736363997329
1.8877207304872008,-1.8185427010574602,0.15769923183029366
-1.8241486389434076,0.7432447953192967,1.0207976085022967
0.0706235745608852,-2.4729154026774536,-0.5282337967736879
0.4087052083013475,-0.5134586284258285,-1.2482145898538974
-0.4356734743640287,0.7206537888755447,0.23991582021560265
-3.418698715642719,0.6845797463262653,-2.7679559965783627
1.9981023142095449,-0.07889839276919342,1.5953525583743136
1.1362309579372358,1.599905506292135,0.3453479946207928
1.0396945298305307,-2.2601626712470173,-0.16737725919980395
-2.0559827293926207,-0.036862566472197544,-0.9090496802809723
-0.11252362977072172,-0.3941168013615469,-0.9727191737732734
-1.3437394280501893,2.2486331993824256,-2.148484436579045
0.6267425228444956,2.7263617494839982,-0.4972294872583849
2.300459324129217,1.0860644056507454,1.9056562783986877
-1.442486710708399,1.5773365512841049,2.2769537678649976
-0.906061303952816,2.340262876923088,-1.4484766268737324
0.5952523991353886,-1.7409252434499547,0.8105097945669661
-1.6123993635497547,0.39444089118946835,-0.7471233759598397
-0.08210718670006445,0.24415058852931293,0.6801509291500936
-2.76615605946309,2.0526834406880874,-0.6713481619472224
1.1970414651174917,-0.2525225038777569,1.9118824235569076
-0.5527516298014672,2.1176985554494894,-0.731664701721827
2.0657954401312324,1.2725946197103806,0.7011082171716956
0.18072095960690404,0.07423015130258004,-2.614373811912679
0.7109892849710788,0.12338154917718258,1.490643455841171
-1.1864974035628681,2.257989787984398,0.04476736130181602
0.8952652845114597,0.7455318474721431,0.5076305134494157
0.7724299703064947,-0.10626455414025715,1.6052289674262958
-0.9849721630176647,1.7464153876040434,-0.9999121693121836
0.6118573795306128,0.43491130175793236,1.3203087108003313
1.7073416963954673,-0.3517417877739859,1.1197907502627449
0.3170146534785764,0.9019426099533104,0.06985678470912193
1.7392306500613155,0.4344753995598394,1.7794845304380367
-0.09573584424627068,1.4043971211003365,-0.6332351898935866
-0.5968278155144313,0.09618285272464655,0.011425079596974141
1.550938690356979,0.8169873512677739,1.0392682646932208
-0.49851135432750404,0.875605264140533,0.48696993118254217
0.7611956035956509,0.7753657969035419,-0.5733813480147909
0.8051897387206088,2.3540725984698754,1.1603267224751477
-0.2401575339469394,0.8214949960832911,-0.8280890013077076
-0.5834013400288791,0.7393341977541015,0.04280942659934828
-0.9800053678371039,0.3666092461657433,-2.6697103628311556
1.1352999093534966,-1.5612625921930263,1.0955943668398822
0.09061745093782869,-1.6418129927421998,1.0421887082498456
-0.9454582911235578,0.8433867433660758,0.5868982239413242
0.7325083737161864,-0.955704103578202,-0.7757605499308899
1.3432472233100978,-0.6743292825761429,0.9238448533710208
-0.8917655317120727,1.262304896042424,0.6243087143926558
4.377402969573256,1.4758306899768259,2.556543453954207
0.02566186173905083,-2.0239710901513814,0.41767270302391757
