Name,Mean Accuracy,Mean Error
RandomForestClassifier,0.8523809523809524,0.14761904761904762
KNN-3,0.8142857142857143,0.18571428571428572
KNN-6,0.7666666666666667,0.23333333333333334
LinearDiscriminantAnalysis,0.7047619047619047,0.2952380952380952
AdaBoostClassifier,0.523809523809524,0.47619047619047616
