Name,Mean Accuracy,Mean Error
RandomForestClassifier,0.9342857142857144,0.06571428571428571
AdaBoostClassifier,0.9114285714285714,0.08857142857142856
LinearDiscriminantAnalysis,0.8657142857142857,0.13428571428571429
KNN-3,0.837142857142857,0.16285714285714287
KNN-6,0.8314285714285713,0.16857142857142854
