Name,CV,Accuracy
KNN-3,0,0.9666666666666667
KNN-3,1,0.9666666666666667
KNN-3,2,0.9333333333333333
KNN-3,3,0.9333333333333333
KNN-3,4,0.9666666666666667
KNN-6,0,0.9666666666666667
KNN-6,1,0.9666666666666667
KNN-6,2,0.9666666666666667
KNN-6,3,0.9333333333333333
KNN-6,4,0.9
RandomForestClassifier,0,1.0
RandomForestClassifier,1,0.9666666666666667
RandomForestClassifier,2,0.9333333333333333
RandomForestClassifier,3,0.9333333333333333
RandomForestClassifier,4,0.9666666666666667
AdaBoostClassifier,0,0.9666666666666667
AdaBoostClassifier,1,0.9333333333333333
AdaBoostClassifier,2,0.9333333333333333
AdaBoostClassifier,3,0.9333333333333333
AdaBoostClassifier,4,0.9666666666666667
LinearDiscriminantAnalysis,0,1.0
LinearDiscriminantAnalysis,1,0.9666666666666667
LinearDiscriminantAnalysis,2,0.9666666666666667
LinearDiscriminantAnalysis,3,1.0
LinearDiscriminantAnalysis,4,0.9666666666666667
