Name,Mean Accuracy,Mean Error
LinearDiscriminantAnalysis,0.9800000000000001,0.02
RandomForestClassifier,0.9600000000000002,0.04
KNN-3,0.9533333333333334,0.04666666666666667
KNN-6,0.9466666666666667,0.053333333333333344
AdaBoostClassifier,0.9466666666666667,0.05333333333333333
