Name,Mean Accuracy,Mean Error
LinearDiscriminantAnalysis,0.9666666666666666,0.03333333333333333
RandomForestClassifier,0.9285714285714286,0.07142857142857142
KNN-6,0.8952380952380953,0.10476190476190475
KNN-3,0.8857142857142858,0.11428571428571428
AdaBoostClassifier,0.6142857142857142,0.3857142857142857
