Name,Mean Accuracy,Mean Error
KNN-3,0.8341463414634147,0.16585365853658537
RandomForestClassifier,0.8341463414634147,0.16585365853658537
AdaBoostClassifier,0.7902439024390244,0.20975609756097563
LinearDiscriminantAnalysis,0.7560975609756098,0.24390243902439024
KNN-6,0.7463414634146341,0.25365853658536586
