Name,CV,Accuracy
KNN-3,0,0.8292682926829268
KNN-3,1,0.8780487804878049
KNN-3,2,0.9024390243902439
KNN-3,3,0.8048780487804879
KNN-3,4,0.7560975609756098
KNN-6,0,0.8048780487804879
KNN-6,1,0.7317073170731707
KNN-6,2,0.7317073170731707
KNN-6,3,0.7804878048780488
KNN-6,4,0.6829268292682927
RandomForestClassifier,0,0.8048780487804879
RandomForestClassifier,1,0.9024390243902439
RandomForestClassifier,2,0.926829268292683
RandomForestClassifier,3,0.7317073170731707
RandomForestClassifier,4,0.8048780487804879
AdaBoostClassifier,0,0.8048780487804879
AdaBoostClassifier,1,0.9024390243902439
AdaBoostClassifier,2,0.8292682926829268
AdaBoostClassifier,3,0.7560975609756098
AdaBoostClassifier,4,0.6585365853658537
LinearDiscriminantAnalysis,0,0.7317073170731707
LinearDiscriminantAnalysis,1,0.8536585365853658
LinearDiscriminantAnalysis,2,0.7804878048780488
LinearDiscriminantAnalysis,3,0.7560975609756098
LinearDiscriminantAnalysis,4,0.6585365853658537
