Name,Mean Accuracy,Mean Error
RandomForestClassifier,0.9521739130434781,0.04782608695652174
AdaBoostClassifier,0.9395652173913043,0.060434782608695656
LinearDiscriminantAnalysis,0.8882608695652173,0.1117391304347826
KNN-3,0.8095652173913044,0.19043478260869565
KNN-6,0.7899999999999999,0.21000000000000002
