Name,CV,Accuracy
KNN-3,0,0.9469026548672567
KNN-3,1,0.8938053097345132
KNN-3,2,0.9469026548672567
KNN-3,3,0.9026548672566371
KNN-3,4,0.9469026548672567
KNN-6,0,0.9469026548672567
KNN-6,1,0.911504424778761
KNN-6,2,0.9203539823008849
KNN-6,3,0.911504424778761
KNN-6,4,0.9380530973451328
RandomForestClassifier,0,0.9646017699115044
RandomForestClassifier,1,0.9469026548672567
RandomForestClassifier,2,0.9469026548672567
RandomForestClassifier,3,0.9911504424778761
RandomForestClassifier,4,0.9646017699115044
AdaBoostClassifier,0,0.9646017699115044
AdaBoostClassifier,1,0.9557522123893806
AdaBoostClassifier,2,0.9380530973451328
AdaBoostClassifier,3,0.9646017699115044
AdaBoostClassifier,4,0.9734513274336283
LinearDiscriminantAnalysis,0,0.9823008849557522
LinearDiscriminantAnalysis,1,0.9380530973451328
LinearDiscriminantAnalysis,2,0.9292035398230089
LinearDiscriminantAnalysis,3,0.9646017699115044
LinearDiscriminantAnalysis,4,0.9557522123893806
