Name,Mean Accuracy,Mean Error
RandomForestClassifier,0.9630000000000001,0.037000000000000005
AdaBoostClassifier,0.959,0.041
LinearDiscriminantAnalysis,0.9145,0.08549999999999999
KNN-3,0.907,0.093
KNN-6,0.9019999999999999,0.098
