Name,CV,Accuracy
KNN-3,0,0.92
KNN-3,1,0.92
KNN-3,2,0.935
KNN-3,3,0.945
KNN-3,4,0.935
KNN-6,0,0.935
KNN-6,1,0.925
KNN-6,2,0.925
KNN-6,3,0.93
KNN-6,4,0.915
RandomForestClassifier,0,0.985
RandomForestClassifier,1,0.985
RandomForestClassifier,2,0.99
RandomForestClassifier,3,0.995
RandomForestClassifier,4,0.98
AdaBoostClassifier,0,0.985
AdaBoostClassifier,1,0.98
AdaBoostClassifier,2,0.97
AdaBoostClassifier,3,0.995
AdaBoostClassifier,4,0.98
LinearDiscriminantAnalysis,0,0.98
LinearDiscriminantAnalysis,1,0.995
LinearDiscriminantAnalysis,2,0.99
LinearDiscriminantAnalysis,3,0.995
LinearDiscriminantAnalysis,4,0.995
