Name,CV,Accuracy
KNN-3,0,0.91
KNN-3,1,0.89
KNN-3,2,0.91
KNN-3,3,0.88
KNN-3,4,0.95
KNN-6,0,0.95
KNN-6,1,0.93
KNN-6,2,0.89
KNN-6,3,0.9
KNN-6,4,0.94
RandomForestClassifier,0,0.98
RandomForestClassifier,1,0.98
RandomForestClassifier,2,0.99
RandomForestClassifier,3,1.0
RandomForestClassifier,4,0.99
AdaBoostClassifier,0,0.98
AdaBoostClassifier,1,0.99
AdaBoostClassifier,2,0.99
AdaBoostClassifier,3,0.99
AdaBoostClassifier,4,0.99
LinearDiscriminantAnalysis,0,1.0
LinearDiscriminantAnalysis,1,0.99
LinearDiscriminantAnalysis,2,1.0
LinearDiscriminantAnalysis,3,0.99
LinearDiscriminantAnalysis,4,1.0
