Name,Mean Accuracy,Mean Error
RandomForestClassifier,0.544,0.45600000000000007
LinearDiscriminantAnalysis,0.5408,0.45920000000000005
KNN-6,0.4264,0.5736
AdaBoostClassifier,0.41480000000000006,0.5852
KNN-3,0.3944,0.6056
