Name,CV,Accuracy
KNN-3,0,0.9325
KNN-3,1,0.9225
KNN-3,2,0.9075
KNN-3,3,0.895
KNN-3,4,0.8775
KNN-6,0,0.9175
KNN-6,1,0.9075
KNN-6,2,0.9
KNN-6,3,0.8925
KNN-6,4,0.8925
RandomForestClassifier,0,0.9575
RandomForestClassifier,1,0.9725
RandomForestClassifier,2,0.9575
RandomForestClassifier,3,0.96
RandomForestClassifier,4,0.9675
AdaBoostClassifier,0,0.9625
AdaBoostClassifier,1,0.9625
AdaBoostClassifier,2,0.9525
AdaBoostClassifier,3,0.9625
AdaBoostClassifier,4,0.955
LinearDiscriminantAnalysis,0,0.93
LinearDiscriminantAnalysis,1,0.91
LinearDiscriminantAnalysis,2,0.92
LinearDiscriminantAnalysis,3,0.9025
LinearDiscriminantAnalysis,4,0.91
