Name,CV,Accuracy
KNN-3,0,0.9558823529411765
KNN-3,1,0.9632352941176471
KNN-3,2,0.9705882352941176
KNN-3,3,0.9558823529411765
KNN-3,4,0.9705882352941176
KNN-6,0,0.9705882352941176
KNN-6,1,0.9705882352941176
KNN-6,2,0.9485294117647058
KNN-6,3,0.9705882352941176
KNN-6,4,0.9779411764705882
RandomForestClassifier,0,0.9632352941176471
RandomForestClassifier,1,0.9632352941176471
RandomForestClassifier,2,0.9558823529411765
RandomForestClassifier,3,0.9705882352941176
RandomForestClassifier,4,0.9632352941176471
AdaBoostClassifier,0,0.9558823529411765
AdaBoostClassifier,1,0.9558823529411765
AdaBoostClassifier,2,0.9338235294117647
AdaBoostClassifier,3,0.9558823529411765
AdaBoostClassifier,4,0.9485294117647058
LinearDiscriminantAnalysis,0,0.9632352941176471
LinearDiscriminantAnalysis,1,0.9705882352941176
LinearDiscriminantAnalysis,2,0.9411764705882353
LinearDiscriminantAnalysis,3,0.9558823529411765
LinearDiscriminantAnalysis,4,0.9705882352941176
