Name,CV,Accuracy
KNN-3,0,0.8461538461538461
KNN-3,1,0.8461538461538461
KNN-3,2,0.8923076923076924
KNN-3,3,0.8615384615384616
KNN-3,4,0.8153846153846154
KNN-6,0,0.8769230769230769
KNN-6,1,0.8153846153846154
KNN-6,2,0.8769230769230769
KNN-6,3,0.9076923076923077
KNN-6,4,0.8769230769230769
RandomForestClassifier,0,0.8615384615384616
RandomForestClassifier,1,0.8307692307692308
RandomForestClassifier,2,0.8769230769230769
RandomForestClassifier,3,0.9076923076923077
RandomForestClassifier,4,0.8923076923076924
AdaBoostClassifier,0,0.7384615384615385
AdaBoostClassifier,1,0.5846153846153846
AdaBoostClassifier,2,0.6615384615384615
AdaBoostClassifier,3,0.7538461538461538
AdaBoostClassifier,4,0.7230769230769231
LinearDiscriminantAnalysis,0,0.9230769230769231
LinearDiscriminantAnalysis,1,0.8307692307692308
LinearDiscriminantAnalysis,2,0.8615384615384616
LinearDiscriminantAnalysis,3,0.9076923076923077
LinearDiscriminantAnalysis,4,0.9076923076923077
