Name,CV,Accuracy
KNN-3,0,0.8285714285714286
KNN-3,1,0.8857142857142857
KNN-3,2,0.8142857142857143
KNN-3,3,0.7857142857142857
KNN-3,4,0.8714285714285714
KNN-6,0,0.7857142857142857
KNN-6,1,0.8857142857142857
KNN-6,2,0.7857142857142857
KNN-6,3,0.8428571428571429
KNN-6,4,0.8571428571428571
RandomForestClassifier,0,0.9428571428571428
RandomForestClassifier,1,0.9142857142857143
RandomForestClassifier,2,0.9285714285714286
RandomForestClassifier,3,0.9428571428571428
RandomForestClassifier,4,0.9428571428571428
AdaBoostClassifier,0,0.9
AdaBoostClassifier,1,0.9428571428571428
AdaBoostClassifier,2,0.8857142857142857
AdaBoostClassifier,3,0.9142857142857143
AdaBoostClassifier,4,0.9142857142857143
LinearDiscriminantAnalysis,0,0.7857142857142857
LinearDiscriminantAnalysis,1,0.8857142857142857
LinearDiscriminantAnalysis,2,0.9
LinearDiscriminantAnalysis,3,0.8571428571428571
LinearDiscriminantAnalysis,4,0.9
