Name,CV,Accuracy
KNN-3,0,0.7189542483660131
KNN-3,1,0.8104575163398693
KNN-3,2,0.7058823529411765
KNN-3,3,0.7058823529411765
KNN-3,4,0.7450980392156863
KNN-6,0,0.7189542483660131
KNN-6,1,0.7581699346405228
KNN-6,2,0.7254901960784313
KNN-6,3,0.6993464052287581
KNN-6,4,0.7320261437908496
RandomForestClassifier,0,0.7712418300653595
RandomForestClassifier,1,0.803921568627451
RandomForestClassifier,2,0.7189542483660131
RandomForestClassifier,3,0.7581699346405228
RandomForestClassifier,4,0.7581699346405228
AdaBoostClassifier,0,0.7516339869281046
AdaBoostClassifier,1,0.7647058823529411
AdaBoostClassifier,2,0.7058823529411765
AdaBoostClassifier,3,0.7450980392156863
AdaBoostClassifier,4,0.6928104575163399
LinearDiscriminantAnalysis,0,0.7843137254901961
LinearDiscriminantAnalysis,1,0.7581699346405228
LinearDiscriminantAnalysis,2,0.7843137254901961
LinearDiscriminantAnalysis,3,0.7647058823529411
LinearDiscriminantAnalysis,4,0.7712418300653595
