Name,CV,Accuracy
KNN-3,0,0.5760869565217391
KNN-3,1,0.5978260869565217
KNN-3,2,0.5760869565217391
KNN-3,3,0.532608695652174
KNN-3,4,0.5652173913043478
KNN-6,0,0.6847826086956522
KNN-6,1,0.5978260869565217
KNN-6,2,0.6521739130434783
KNN-6,3,0.5652173913043478
KNN-6,4,0.5978260869565217
RandomForestClassifier,0,0.6630434782608695
RandomForestClassifier,1,0.5978260869565217
RandomForestClassifier,2,0.5978260869565217
RandomForestClassifier,3,0.6086956521739131
RandomForestClassifier,4,0.6847826086956522
AdaBoostClassifier,0,0.717391304347826
AdaBoostClassifier,1,0.5978260869565217
AdaBoostClassifier,2,0.6304347826086957
AdaBoostClassifier,3,0.6739130434782609
AdaBoostClassifier,4,0.6521739130434783
LinearDiscriminantAnalysis,0,0.6413043478260869
LinearDiscriminantAnalysis,1,0.6304347826086957
LinearDiscriminantAnalysis,2,0.7391304347826086
LinearDiscriminantAnalysis,3,0.75
LinearDiscriminantAnalysis,4,0.75
