Name,CV,Accuracy
KNN-3,0,0.8571428571428571
KNN-3,1,0.9047619047619048
KNN-3,2,0.8809523809523809
KNN-3,3,0.8809523809523809
KNN-3,4,0.9047619047619048
KNN-6,0,0.8571428571428571
KNN-6,1,0.9047619047619048
KNN-6,2,0.9047619047619048
KNN-6,3,0.9047619047619048
KNN-6,4,0.9047619047619048
RandomForestClassifier,0,0.9285714285714286
RandomForestClassifier,1,0.8809523809523809
RandomForestClassifier,2,0.9285714285714286
RandomForestClassifier,3,0.9761904761904762
RandomForestClassifier,4,0.9285714285714286
AdaBoostClassifier,0,0.42857142857142855
AdaBoostClassifier,1,0.6904761904761905
AdaBoostClassifier,2,0.5476190476190477
AdaBoostClassifier,3,0.6190476190476191
AdaBoostClassifier,4,0.7857142857142857
LinearDiscriminantAnalysis,0,0.9523809523809523
LinearDiscriminantAnalysis,1,0.9761904761904762
LinearDiscriminantAnalysis,2,0.9523809523809523
LinearDiscriminantAnalysis,3,0.9761904761904762
LinearDiscriminantAnalysis,4,0.9761904761904762
