Name,Mean Accuracy,Mean Error
RandomForestClassifier,0.9628318584070795,0.03716814159292035
AdaBoostClassifier,0.95929203539823,0.04070796460176991
LinearDiscriminantAnalysis,0.9539823008849557,0.046017699115044254
KNN-3,0.9274336283185841,0.07256637168141593
KNN-6,0.9256637168141593,0.0743362831858407
