Name,Mean Accuracy,Mean Error
LinearDiscriminantAnalysis,0.991,0.009
RandomForestClassifier,0.9870000000000001,0.013000000000000001
AdaBoostClassifier,0.982,0.018000000000000002
KNN-3,0.931,0.069
KNN-6,0.9260000000000002,0.07400000000000001
