Name,Mean Accuracy,Mean Error
LinearDiscriminantAnalysis,0.9960000000000001,0.004
RandomForestClassifier,0.9880000000000001,0.012
AdaBoostClassifier,0.9880000000000001,0.012
KNN-6,0.9219999999999999,0.078
KNN-3,0.908,0.092
