Name,Mean Accuracy,Mean Error
AdaBoostClassifier,0.8310000000000001,0.16899999999999998
LinearDiscriminantAnalysis,0.829,0.17099999999999999
RandomForestClassifier,0.8254999999999999,0.17450000000000002
KNN-6,0.8190000000000002,0.181
KNN-3,0.8135,0.1865
