Name,CV,Accuracy
KNN-3,0,0.368
KNN-3,1,0.392
KNN-3,2,0.408
KNN-3,3,0.392
KNN-3,4,0.412
KNN-6,0,0.414
KNN-6,1,0.43
KNN-6,2,0.446
KNN-6,3,0.408
KNN-6,4,0.434
RandomForestClassifier,0,0.536
RandomForestClassifier,1,0.532
RandomForestClassifier,2,0.546
RandomForestClassifier,3,0.554
RandomForestClassifier,4,0.552
AdaBoostClassifier,0,0.448
AdaBoostClassifier,1,0.38
AdaBoostClassifier,2,0.438
AdaBoostClassifier,3,0.39
AdaBoostClassifier,4,0.418
LinearDiscriminantAnalysis,0,0.558
LinearDiscriminantAnalysis,1,0.542
LinearDiscriminantAnalysis,2,0.556
LinearDiscriminantAnalysis,3,0.522
LinearDiscriminantAnalysis,4,0.526
